<svg xmlns="http://www.w3.org/2000/svg" xmlns:xlink="http://www.w3.org/1999/xlink" width="386" height="94.06" viewBox="0 0 386 94.06">
  <metadata><?xpacket begin="﻿" id="W5M0MpCehiHzreSzNTczkc9d"?>
<x:xmpmeta xmlns:x="adobe:ns:meta/" x:xmptk="Adobe XMP Core 5.6-c142 79.160924, 2017/07/13-01:06:39        ">
   <rdf:RDF xmlns:rdf="http://www.w3.org/1999/02/22-rdf-syntax-ns#">
      <rdf:Description rdf:about=""/>
   </rdf:RDF>
</x:xmpmeta>
                                                                                                    
                                                                                                    
                                                                                                    
                                                                                                    
                                                                                                    
                                                                                                    
                                                                                                    
                                                                                                    
                                                                                                    
                                                                                                    
                                                                                                    
                                                                                                    
                                                                                                    
                                                                                                    
                                                                                                    
                                                                                                    
                                                                                                    
                                                                                                    
                                                                                                    
                                                                                                    
                           
<?xpacket end="w"?></metadata>
<defs>
    <style>
      .cls-1 {
        fill: #fff;
        stroke: #ebebeb;
        stroke-width: 1px;
        fill-rule: evenodd;
        filter: url(#filter);
      }
    </style>
    <filter id="filter" x="567" y="1858.94" width="385" height="93.06" filterUnits="userSpaceOnUse">
      <feOffset result="offset" dx="2.229" dy="2.007" in="SourceAlpha"/>
      <feGaussianBlur result="blur" stdDeviation="1.732"/>
      <feFlood result="flood" flood-color="#131312" flood-opacity="0.13"/>
      <feComposite result="composite" operator="in" in2="blur"/>
      <feBlend result="blend" in="SourceGraphic"/>
    </filter>
  </defs>
  <g transform="translate(-566.5 -1858.44)" style="fill: #fff; filter: url(#filter)">
    <path id="path" class="cls-1" d="M570,1858.92H944a3,3,0,0,1,3,3v81.53a3,3,0,0,1-3,3H570a3,3,0,0,1-3-3v-81.53A3,3,0,0,1,570,1858.92Z" style="stroke: inherit; filter: none; fill: inherit"/>
  </g>
  <use transform="translate(-566.5 -1858.44)" xlink:href="#path" style="stroke: #ebebeb; filter: none; fill: none"/>
</svg>
